-------------------------------------------------------------------------------
Test set: training.maven.quick.ApplicationTest
-------------------------------------------------------------------------------
Tests run: 5, Failures: 0, Errors: 0, Skipped: 1, Time elapsed: 0.078 sec
